<?xml version="1.0" encoding="UTF-8" standalone="no"?>
<!-- Created with Inkscape (http://www.inkscape.org/) -->

<svg
   xmlns:dc="http://purl.org/dc/elements/1.1/"
   xmlns:cc="http://creativecommons.org/ns#"
   xmlns:rdf="http://www.w3.org/1999/02/22-rdf-syntax-ns#"
   xmlns:svg="http://www.w3.org/2000/svg"
   xmlns="http://www.w3.org/2000/svg"
   xmlns:xlink="http://www.w3.org/1999/xlink"
   xmlns:sodipodi="http://sodipodi.sourceforge.net/DTD/sodipodi-0.dtd"
   xmlns:inkscape="http://www.inkscape.org/namespaces/inkscape"
   width="210mm"
   height="99mm"
   viewBox="0 0 210 99"
   version="1.1"
   id="svg8"
   inkscape:version="0.92.3 (2405546, 2018-03-11)"
   sodipodi:docname="AmendeDe135Euros.svg">
  <defs
     id="defs2">
    <clipPath
       id="clipPath872"
       clipPathUnits="userSpaceOnUse">
      <path
         inkscape:connector-curvature="0"
         id="path870"
         d="m 545.386,135.615 h 49.89 v 149.716 h -49.89 z" />
    </clipPath>
    <clipPath
       id="clipPath1018"
       clipPathUnits="userSpaceOnUse">
      <path
         inkscape:connector-curvature="0"
         id="path1016"
         d="M 0,0 H 595.276 V 420.945 H 0 Z" />
    </clipPath>
    <clipPath
       id="clipPath1048"
       clipPathUnits="userSpaceOnUse">
      <path
         inkscape:connector-curvature="0"
         id="path1046"
         d="M 0,0 H 595.276 V 420.945 H 0 Z" />
    </clipPath>
    <linearGradient
       id="linearGradient1056"
       spreadMethod="pad"
       gradientTransform="matrix(0,-449.291,449.291,0,1.5001,420.945)"
       gradientUnits="userSpaceOnUse"
       y2="0"
       x2="1"
       y1="0"
       x1="0">
      <stop
         id="stop1052"
         offset="0"
         style="stop-opacity:1;stop-color:#98c21d" />
      <stop
         id="stop1054"
         offset="1"
         style="stop-opacity:1;stop-color:#fafcf6" />
    </linearGradient>
    <mask
       id="mask1062"
       height="1"
       width="1"
       y="0"
       x="0"
       maskUnits="userSpaceOnUse">
      <image
         id="image1064"
         xlink:href="data:image/png;base64,iVBORw0KGgoAAAANSUhEUgAAAGQAAABkCAAAAABVicqIAAAAAXNCSVQI5gpbmQAAAD9JREFUaIHtzUEBAAAEBDD070yK89oKrLfy5uGQSCQSiUQikUgkEolEIpFIJBKJRCKRSCQSiUQikUgkEokk7ADfewHHsqOdjwAAAABJRU5ErkJggg=="
         preserveAspectRatio="none"
         style="image-rendering:optimizeSpeed"
         height="1"
         width="1" />
    </mask>
    <clipPath
       id="clipPath1086"
       clipPathUnits="userSpaceOnUse">
      <path
         inkscape:connector-curvature="0"
         id="path1084"
         d="M 0,0 H 595.276 V 420.945 H 0 Z" />
    </clipPath>
    <clipPath
       id="clipPath1110"
       clipPathUnits="userSpaceOnUse">
      <path
         inkscape:connector-curvature="0"
         id="path1108"
         d="M 0,0 H 595.276 V 420.945 H 0 Z" />
    </clipPath>
  </defs>
  <sodipodi:namedview
     id="base"
     pagecolor="#ffffff"
     bordercolor="#666666"
     borderopacity="1.0"
     inkscape:pageopacity="0.0"
     inkscape:pageshadow="2"
     inkscape:zoom="1.4142136"
     inkscape:cx="468.55721"
     inkscape:cy="157.07583"
     inkscape:document-units="mm"
     inkscape:current-layer="g560"
     showgrid="false"
     inkscape:window-width="1916"
     inkscape:window-height="1041"
     inkscape:window-x="1920"
     inkscape:window-y="18"
     inkscape:window-maximized="0"
     inkscape:lockguides="true" />
  <metadata
     id="metadata5">
    <rdf:RDF>
      <cc:Work
         rdf:about="">
        <dc:format>image/svg+xml</dc:format>
        <dc:type
           rdf:resource="http://purl.org/dc/dcmitype/StillImage" />
        <dc:title />
      </cc:Work>
    </rdf:RDF>
  </metadata>
  <g
     inkscape:label="Recto : Cyclistes, déportez vous"
     inkscape:groupmode="layer"
     id="g560"
     transform="translate(0,-198)"
     style="display:inline;opacity:0.98">
    <g
       style="stroke-width:1.23460627"
       id="g514"
       transform="matrix(1.1333755,0,0,1.1333755,0.41318536,47.394391)">
      <flowRoot
         transform="matrix(0.74799845,0,0,0.74799845,-35.991862,131.96983)"
         style="font-style:normal;font-variant:normal;font-weight:500;font-stretch:normal;font-size:30.18425751px;line-height:1.25;font-family:'Chocolate Covered Raindrops';-inkscape-font-specification:'Chocolate Covered Raindrops, Medium';font-variant-ligatures:normal;font-variant-caps:normal;font-variant-numeric:normal;font-feature-settings:normal;text-align:center;letter-spacing:0px;word-spacing:0px;writing-mode:lr-tb;text-anchor:middle;fill:#000000;fill-opacity:1;stroke:none;stroke-width:1.23460627"
         id="flowRoot504"
         xml:space="preserve"><flowRegion
           style="font-style:normal;font-variant:normal;font-weight:500;font-stretch:normal;font-size:30.18425751px;font-family:'Chocolate Covered Raindrops';-inkscape-font-specification:'Chocolate Covered Raindrops, Medium';font-variant-ligatures:normal;font-variant-caps:normal;font-variant-numeric:normal;font-feature-settings:normal;text-align:center;writing-mode:lr-tb;text-anchor:middle;stroke-width:1.23460627"
           id="flowRegion498"><rect
             style="font-style:normal;font-variant:normal;font-weight:500;font-stretch:normal;font-size:30.18425751px;font-family:'Chocolate Covered Raindrops';-inkscape-font-specification:'Chocolate Covered Raindrops, Medium';font-variant-ligatures:normal;font-variant-caps:normal;font-variant-numeric:normal;font-feature-settings:normal;text-align:center;writing-mode:lr-tb;text-anchor:middle;stroke-width:1.23460627"
             y="31.554937"
             x="32.324883"
             height="118.45574"
             width="271.74414"
             id="rect496" /></flowRegion><flowPara
           style="font-size:21.57139397px;line-height:0px;stroke-width:1.23460627"
           id="flowPara502" /></flowRoot>      <flowRoot
         transform="matrix(0.74799846,0,0,0.74799846,-19.771959,200.23771)"
         style="font-style:normal;font-variant:normal;font-weight:500;font-stretch:normal;font-size:30.18425751px;line-height:1.25;font-family:'Chocolate Covered Raindrops';-inkscape-font-specification:'Chocolate Covered Raindrops, Medium';font-variant-ligatures:normal;font-variant-caps:normal;font-variant-numeric:normal;font-feature-settings:normal;text-align:center;letter-spacing:0px;word-spacing:0px;writing-mode:lr-tb;text-anchor:middle;display:inline;fill:#000000;fill-opacity:1;stroke:none;stroke-width:1.23460627"
         id="flowRoot512"
         xml:space="preserve"><flowRegion
           style="font-style:normal;font-variant:normal;font-weight:500;font-stretch:normal;font-size:30.18425751px;font-family:'Chocolate Covered Raindrops';-inkscape-font-specification:'Chocolate Covered Raindrops, Medium';font-variant-ligatures:normal;font-variant-caps:normal;font-variant-numeric:normal;font-feature-settings:normal;text-align:center;writing-mode:lr-tb;text-anchor:middle;stroke-width:1.23460627"
           id="flowRegion508"><rect
             style="font-style:normal;font-variant:normal;font-weight:500;font-stretch:normal;font-size:30.18425751px;font-family:'Chocolate Covered Raindrops';-inkscape-font-specification:'Chocolate Covered Raindrops, Medium';font-variant-ligatures:normal;font-variant-caps:normal;font-variant-numeric:normal;font-feature-settings:normal;text-align:center;writing-mode:lr-tb;text-anchor:middle;stroke-width:1.23460627"
             y="31.554937"
             x="32.324883"
             height="103.03556"
             width="258.59906"
             id="rect506" /></flowRegion><flowPara
           style="stroke-width:1.23460627"
           id="flowPara510" /></flowRoot>    </g>
    <flowRoot
       xml:space="preserve"
       id="flowRoot522"
       style="font-style:normal;font-variant:normal;font-weight:500;font-stretch:normal;font-size:30.18425751px;line-height:1.25;font-family:'Chocolate Covered Raindrops';-inkscape-font-specification:'Chocolate Covered Raindrops, Medium';font-variant-ligatures:normal;font-variant-caps:normal;font-variant-numeric:normal;font-feature-settings:normal;text-align:center;letter-spacing:0px;word-spacing:0px;writing-mode:lr-tb;text-anchor:middle;fill:#000000;fill-opacity:1;stroke:none;stroke-width:1.23460627"
       transform="matrix(0.84776312,0,0,0.84776312,-41.59432,173.27975)"><flowRegion
         id="flowRegion518"
         style="font-style:normal;font-variant:normal;font-weight:500;font-stretch:normal;font-size:30.18425751px;font-family:'Chocolate Covered Raindrops';-inkscape-font-specification:'Chocolate Covered Raindrops, Medium';font-variant-ligatures:normal;font-variant-caps:normal;font-variant-numeric:normal;font-feature-settings:normal;text-align:center;writing-mode:lr-tb;text-anchor:middle;stroke-width:1.23460627"><rect
           id="rect516"
           width="271.74414"
           height="118.45574"
           x="32.324883"
           y="31.554937"
           style="font-style:normal;font-variant:normal;font-weight:500;font-stretch:normal;font-size:30.18425751px;font-family:'Chocolate Covered Raindrops';-inkscape-font-specification:'Chocolate Covered Raindrops, Medium';font-variant-ligatures:normal;font-variant-caps:normal;font-variant-numeric:normal;font-feature-settings:normal;text-align:center;writing-mode:lr-tb;text-anchor:middle;stroke-width:1.23460627" /></flowRegion><flowPara
         id="flowPara520"
         style="font-size:29.96119881px;line-height:0px;stroke-width:1.23460627">Véhicule sur le trottoir</flowPara></flowRoot>    <flowRoot
       xml:space="preserve"
       id="flowRoot530"
       style="font-style:normal;font-variant:normal;font-weight:500;font-stretch:normal;font-size:30.18425751px;line-height:1.25;font-family:'Chocolate Covered Raindrops';-inkscape-font-specification:'Chocolate Covered Raindrops, Medium';font-variant-ligatures:normal;font-variant-caps:normal;font-variant-numeric:normal;font-feature-settings:normal;text-align:center;letter-spacing:0px;word-spacing:0px;writing-mode:lr-tb;text-anchor:middle;display:inline;fill:#000000;fill-opacity:1;stroke:none;stroke-width:1.23460627"
       transform="matrix(0.84776313,0,0,0.84776313,-22.376746,229.80073)"><flowRegion
         id="flowRegion526"
         style="font-style:normal;font-variant:normal;font-weight:500;font-stretch:normal;font-size:30.18425751px;font-family:'Chocolate Covered Raindrops';-inkscape-font-specification:'Chocolate Covered Raindrops, Medium';font-variant-ligatures:normal;font-variant-caps:normal;font-variant-numeric:normal;font-feature-settings:normal;text-align:center;writing-mode:lr-tb;text-anchor:middle;stroke-width:1.23460627"><rect
           id="rect524"
           width="258.59906"
           height="103.03556"
           x="32.324883"
           y="31.554937"
           style="font-style:normal;font-variant:normal;font-weight:500;font-stretch:normal;font-size:30.18425751px;font-family:'Chocolate Covered Raindrops';-inkscape-font-specification:'Chocolate Covered Raindrops, Medium';font-variant-ligatures:normal;font-variant-caps:normal;font-variant-numeric:normal;font-feature-settings:normal;text-align:center;writing-mode:lr-tb;text-anchor:middle;stroke-width:1.23460627" /></flowRegion><flowPara
         id="flowPara528"
         style="stroke-width:1.23460627" /></flowRoot>    <flowRoot
       xml:space="preserve"
       id="flowRoot522-76"
       style="font-style:normal;font-variant:normal;font-weight:500;font-stretch:normal;font-size:30.18425751px;line-height:1.25;font-family:'Chocolate Covered Raindrops';-inkscape-font-specification:'Chocolate Covered Raindrops, Medium';font-variant-ligatures:normal;font-variant-caps:normal;font-variant-numeric:normal;font-feature-settings:normal;text-align:center;letter-spacing:0px;word-spacing:0px;writing-mode:lr-tb;text-anchor:middle;display:inline;fill:#000000;fill-opacity:1;stroke:none;stroke-width:1.23460627"
       transform="matrix(0.84776313,0,0,0.84776313,-41.906157,200.29255)"><flowRegion
         id="flowRegion518-8"
         style="font-style:normal;font-variant:normal;font-weight:500;font-stretch:normal;font-size:30.18425751px;font-family:'Chocolate Covered Raindrops';-inkscape-font-specification:'Chocolate Covered Raindrops, Medium';font-variant-ligatures:normal;font-variant-caps:normal;font-variant-numeric:normal;font-feature-settings:normal;text-align:center;writing-mode:lr-tb;text-anchor:middle;stroke-width:1.23460627"><rect
           id="rect516-9"
           width="271.74414"
           height="118.45574"
           x="32.324883"
           y="31.554937"
           style="font-style:normal;font-variant:normal;font-weight:500;font-stretch:normal;font-size:30.18425751px;font-family:'Chocolate Covered Raindrops';-inkscape-font-specification:'Chocolate Covered Raindrops, Medium';font-variant-ligatures:normal;font-variant-caps:normal;font-variant-numeric:normal;font-feature-settings:normal;text-align:center;writing-mode:lr-tb;text-anchor:middle;stroke-width:1.23460627" /></flowRegion><flowPara
         id="flowPara520-0"
         style="font-size:29.96119881px;line-height:0px;stroke-width:1.23460627">Stationnement très gênant</flowPara></flowRoot>    <g
       style="display:inline;stroke-width:1.23460627"
       id="g550"
       transform="matrix(1.1333755,0,0,1.1333755,0.29997306,48.09997)">
      <flowRoot
         transform="matrix(0.74799845,0,0,0.74799845,-35.991862,131.96983)"
         style="font-style:normal;font-variant:normal;font-weight:500;font-stretch:normal;font-size:30.18425751px;line-height:1.25;font-family:'Chocolate Covered Raindrops';-inkscape-font-specification:'Chocolate Covered Raindrops, Medium';font-variant-ligatures:normal;font-variant-caps:normal;font-variant-numeric:normal;font-feature-settings:normal;text-align:center;letter-spacing:0px;word-spacing:0px;writing-mode:lr-tb;text-anchor:middle;fill:#000000;fill-opacity:1;stroke:none;stroke-width:1.23460627"
         id="flowRoot540"
         xml:space="preserve"><flowRegion
           style="font-style:normal;font-variant:normal;font-weight:500;font-stretch:normal;font-size:30.18425751px;font-family:'Chocolate Covered Raindrops';-inkscape-font-specification:'Chocolate Covered Raindrops, Medium';font-variant-ligatures:normal;font-variant-caps:normal;font-variant-numeric:normal;font-feature-settings:normal;text-align:center;writing-mode:lr-tb;text-anchor:middle;stroke-width:1.23460627"
           id="flowRegion536"><rect
             style="font-style:normal;font-variant:normal;font-weight:500;font-stretch:normal;font-size:30.18425751px;font-family:'Chocolate Covered Raindrops';-inkscape-font-specification:'Chocolate Covered Raindrops, Medium';font-variant-ligatures:normal;font-variant-caps:normal;font-variant-numeric:normal;font-feature-settings:normal;text-align:center;writing-mode:lr-tb;text-anchor:middle;stroke-width:1.23460627"
             y="31.554937"
             x="32.324883"
             height="118.45574"
             width="271.74414"
             id="rect534" /></flowRegion><flowPara
           style="font-size:21.57139397px;line-height:0px;stroke-width:1.23460627"
           id="flowPara538" /></flowRoot>      <flowRoot
         transform="matrix(0.74799846,0,0,0.74799846,-19.771959,200.23771)"
         style="font-style:normal;font-variant:normal;font-weight:500;font-stretch:normal;font-size:30.18425751px;line-height:1.25;font-family:'Chocolate Covered Raindrops';-inkscape-font-specification:'Chocolate Covered Raindrops, Medium';font-variant-ligatures:normal;font-variant-caps:normal;font-variant-numeric:normal;font-feature-settings:normal;text-align:center;letter-spacing:0px;word-spacing:0px;writing-mode:lr-tb;text-anchor:middle;display:inline;fill:#000000;fill-opacity:1;stroke:none;stroke-width:1.23460627"
         id="flowRoot548"
         xml:space="preserve"><flowRegion
           style="font-style:normal;font-variant:normal;font-weight:500;font-stretch:normal;font-size:30.18425751px;font-family:'Chocolate Covered Raindrops';-inkscape-font-specification:'Chocolate Covered Raindrops, Medium';font-variant-ligatures:normal;font-variant-caps:normal;font-variant-numeric:normal;font-feature-settings:normal;text-align:center;writing-mode:lr-tb;text-anchor:middle;stroke-width:1.23460627"
           id="flowRegion544"><rect
             style="font-style:normal;font-variant:normal;font-weight:500;font-stretch:normal;font-size:30.18425751px;font-family:'Chocolate Covered Raindrops';-inkscape-font-specification:'Chocolate Covered Raindrops, Medium';font-variant-ligatures:normal;font-variant-caps:normal;font-variant-numeric:normal;font-feature-settings:normal;text-align:center;writing-mode:lr-tb;text-anchor:middle;stroke-width:1.23460627"
             y="31.554937"
             x="32.324883"
             height="103.03556"
             width="258.59906"
             id="rect542" /></flowRegion><flowPara
           style="stroke-width:1.23460627"
           id="flowPara546" /></flowRoot>    </g>
    <flowRoot
       transform="matrix(0.26458333,0,0,0.26458333,0,198)"
       style="font-style:normal;font-weight:normal;font-size:40px;line-height:1.25;font-family:sans-serif;letter-spacing:0px;word-spacing:0px;fill:#000000;fill-opacity:1;stroke:none"
       id="flowRoot558"
       xml:space="preserve"><flowRegion
         id="flowRegion554"
         style=""><rect
           y="72.173225"
           x="-129"
           height="147"
           width="81"
           id="rect552"
           style="" /></flowRegion><flowPara
         id="flowPara556" /></flowRoot>    <g
       style="display:inline;stroke-width:1.23460627"
       id="g532-6"
       transform="matrix(1.1333755,0,0,1.1333755,2.8377264,65.967415)">
      <flowRoot
         transform="matrix(0.74799845,0,0,0.74799845,-39.293304,146.16603)"
         style="font-style:normal;font-variant:normal;font-weight:500;font-stretch:normal;font-size:30.18425751px;line-height:1.25;font-family:'Chocolate Covered Raindrops';-inkscape-font-specification:'Chocolate Covered Raindrops, Medium';font-variant-ligatures:normal;font-variant-caps:normal;font-variant-numeric:normal;font-feature-settings:normal;text-align:center;letter-spacing:0px;word-spacing:0px;writing-mode:lr-tb;text-anchor:middle;fill:#000000;fill-opacity:1;stroke:none;stroke-width:1.23460627"
         id="flowRoot522-7"
         xml:space="preserve"><flowRegion
           style="font-style:normal;font-variant:normal;font-weight:500;font-stretch:normal;font-size:30.18425751px;font-family:'Chocolate Covered Raindrops';-inkscape-font-specification:'Chocolate Covered Raindrops, Medium';font-variant-ligatures:normal;font-variant-caps:normal;font-variant-numeric:normal;font-feature-settings:normal;text-align:center;writing-mode:lr-tb;text-anchor:middle;stroke-width:1.23460627"
           id="flowRegion518-5"><rect
             style="font-style:normal;font-variant:normal;font-weight:500;font-stretch:normal;font-size:30.18425751px;font-family:'Chocolate Covered Raindrops';-inkscape-font-specification:'Chocolate Covered Raindrops, Medium';font-variant-ligatures:normal;font-variant-caps:normal;font-variant-numeric:normal;font-feature-settings:normal;text-align:center;writing-mode:lr-tb;text-anchor:middle;stroke-width:1.23460627"
             y="31.554937"
             x="32.324883"
             height="118.45574"
             width="271.74414"
             id="rect516-6" /></flowRegion><flowPara
           style="font-size:29.96119881px;line-height:0px;stroke-width:1.23460627"
           id="flowPara520-9">Amende de 135€</flowPara></flowRoot>      <flowRoot
         transform="matrix(0.74799846,0,0,0.74799846,-19.771959,200.23771)"
         style="font-style:normal;font-variant:normal;font-weight:500;font-stretch:normal;font-size:30.18425751px;line-height:1.25;font-family:'Chocolate Covered Raindrops';-inkscape-font-specification:'Chocolate Covered Raindrops, Medium';font-variant-ligatures:normal;font-variant-caps:normal;font-variant-numeric:normal;font-feature-settings:normal;text-align:center;letter-spacing:0px;word-spacing:0px;writing-mode:lr-tb;text-anchor:middle;display:inline;fill:#000000;fill-opacity:1;stroke:none;stroke-width:1.23460627"
         id="flowRoot530-8"
         xml:space="preserve"><flowRegion
           style="font-style:normal;font-variant:normal;font-weight:500;font-stretch:normal;font-size:30.18425751px;font-family:'Chocolate Covered Raindrops';-inkscape-font-specification:'Chocolate Covered Raindrops, Medium';font-variant-ligatures:normal;font-variant-caps:normal;font-variant-numeric:normal;font-feature-settings:normal;text-align:center;writing-mode:lr-tb;text-anchor:middle;stroke-width:1.23460627"
           id="flowRegion526-7"><rect
             style="font-style:normal;font-variant:normal;font-weight:500;font-stretch:normal;font-size:30.18425751px;font-family:'Chocolate Covered Raindrops';-inkscape-font-specification:'Chocolate Covered Raindrops, Medium';font-variant-ligatures:normal;font-variant-caps:normal;font-variant-numeric:normal;font-feature-settings:normal;text-align:center;writing-mode:lr-tb;text-anchor:middle;stroke-width:1.23460627"
             y="31.554937"
             x="32.324883"
             height="103.03556"
             width="258.59906"
             id="rect524-2" /></flowRegion><flowPara
           style="stroke-width:1.23460627"
           id="flowPara528-8" /></flowRoot>    </g>
    <flowRoot
       xml:space="preserve"
       id="flowRoot522-9"
       style="font-style:normal;font-variant:normal;font-weight:500;font-stretch:normal;font-size:30.18425751px;line-height:1.25;font-family:'Chocolate Covered Raindrops';-inkscape-font-specification:'Chocolate Covered Raindrops, Medium';font-variant-ligatures:normal;font-variant-caps:normal;font-variant-numeric:normal;font-feature-settings:normal;text-align:center;letter-spacing:0px;word-spacing:0px;writing-mode:lr-tb;text-anchor:middle;display:inline;opacity:0.98000004;fill:#000000;fill-opacity:1;stroke:none;stroke-width:1.23460627"
       transform="matrix(2.3464108,0,0,2.3464108,-302.83341,101.74902)"><flowRegion
         id="flowRegion518-7"
         style="font-style:normal;font-variant:normal;font-weight:500;font-stretch:normal;font-size:30.18425751px;font-family:'Chocolate Covered Raindrops';-inkscape-font-specification:'Chocolate Covered Raindrops, Medium';font-variant-ligatures:normal;font-variant-caps:normal;font-variant-numeric:normal;font-feature-settings:normal;text-align:center;writing-mode:lr-tb;text-anchor:middle;stroke-width:1.23460627"><rect
           id="rect516-8"
           width="271.74414"
           height="118.45574"
           x="32.324883"
           y="31.554937"
           style="font-style:normal;font-variant:normal;font-weight:500;font-stretch:normal;font-size:30.18425751px;font-family:'Chocolate Covered Raindrops';-inkscape-font-specification:'Chocolate Covered Raindrops, Medium';font-variant-ligatures:normal;font-variant-caps:normal;font-variant-numeric:normal;font-feature-settings:normal;text-align:center;writing-mode:lr-tb;text-anchor:middle;stroke-width:1.23460627" /></flowRegion><flowPara
         id="flowPara520-2"
         style="font-style:normal;font-variant:normal;font-weight:normal;font-stretch:normal;font-size:29.96119881px;line-height:0px;font-family:'Chocolate Covered Raindrops Hol';-inkscape-font-specification:'Chocolate Covered Raindrops Hol';stroke-width:1.23460627">=</flowPara></flowRoot>    <flowRoot
       xml:space="preserve"
       id="flowRoot522-9-1"
       style="font-style:normal;font-variant:normal;font-weight:500;font-stretch:normal;font-size:30.18425751px;line-height:1.25;font-family:'Chocolate Covered Raindrops';-inkscape-font-specification:'Chocolate Covered Raindrops, Medium';font-variant-ligatures:normal;font-variant-caps:normal;font-variant-numeric:normal;font-feature-settings:normal;text-align:center;letter-spacing:0px;word-spacing:0px;writing-mode:lr-tb;text-anchor:middle;display:inline;opacity:0.98000004;fill:#000000;fill-opacity:1;stroke:none;stroke-width:1.23460627"
       transform="matrix(2.3464108,0,0,2.3464108,-302.83341,131.68005)"><flowRegion
         id="flowRegion518-7-6"
         style="font-style:normal;font-variant:normal;font-weight:500;font-stretch:normal;font-size:30.18425751px;font-family:'Chocolate Covered Raindrops';-inkscape-font-specification:'Chocolate Covered Raindrops, Medium';font-variant-ligatures:normal;font-variant-caps:normal;font-variant-numeric:normal;font-feature-settings:normal;text-align:center;writing-mode:lr-tb;text-anchor:middle;stroke-width:1.23460627"><rect
           id="rect516-8-2"
           width="271.74414"
           height="118.45574"
           x="32.324883"
           y="31.554937"
           style="font-style:normal;font-variant:normal;font-weight:500;font-stretch:normal;font-size:30.18425751px;font-family:'Chocolate Covered Raindrops';-inkscape-font-specification:'Chocolate Covered Raindrops, Medium';font-variant-ligatures:normal;font-variant-caps:normal;font-variant-numeric:normal;font-feature-settings:normal;text-align:center;writing-mode:lr-tb;text-anchor:middle;stroke-width:1.23460627" /></flowRegion><flowPara
         id="flowPara520-2-0"
         style="font-style:normal;font-variant:normal;font-weight:normal;font-stretch:normal;font-size:29.96119881px;line-height:0px;font-family:'Chocolate Covered Raindrops Hol';-inkscape-font-specification:'Chocolate Covered Raindrops Hol';stroke-width:1.23460627">=</flowPara></flowRoot>  </g>
</svg>
